// Jest Snapshot v1, https://goo.gl/fbAQLP

exports[`SpeechesPage snapshot default 1`] = `
<div>
  <ForwardRef(WithStyles)
    variant="h3"
  >
    All speeches:
  </ForwardRef(WithStyles)>
  <Memo(Connect(SpeechesList)) />
</div>
`;
