// Jest Snapshot v1, https://goo.gl/fbAQLP

exports[`SpeakersListItem snapshot default 1`] = `
<DocumentFragment>
  <div>
    <div
      class="MuiAvatar-root MuiAvatar-circle"
    >
      <img
        class="MuiAvatar-img"
        src="image"
      />
    </div>
    <h6
      class="MuiTypography-root MuiTypography-h6"
    >
      Speaker name
    </h6>
    <p
      class="MuiTypography-root MuiTypography-body1"
    >
      Speaker title
    </p>
  </div>
</DocumentFragment>
`;

exports[`SpeakersListItem snapshot no image 1`] = `
<DocumentFragment>
  <div>
    <h6
      class="MuiTypography-root MuiTypography-h6"
    >
      Speaker name
    </h6>
    <p
      class="MuiTypography-root MuiTypography-body1"
    >
      Speaker title
    </p>
  </div>
</DocumentFragment>
`;
