// Jest Snapshot v1, https://goo.gl/fbAQLP

exports[`SpeechesList snapshot default 1`] = `
<div>
  
  <SpeechesListItem
    speech={
      Object {
        "description": "In many resources about automation, we can find that first step in automation is choosing the right tools. But is it the best first steps? In my experience as QA Manager, I saw many failed automation projects with strong engineers who were successfully solving really difficult technical changes but they failed in an organization of automation process. They miss such things as test cases prioritization, MVP, the balance between automation value and framework complexity, helping POs and BAs to execute UAT in different environments, advertising automation framework to stakeholders.
    
            So in this talk, I would like to focus on organization automation project, how to make technically poor automation framework successful in the eyes of stakeholders and to have maxim value for product quality.",
        "id": 1,
        "score": 0,
        "speaker": Object {
          "id": 24,
          "image": "image1",
          "name": "Speaker name1",
          "title": "Speaker title1",
        },
        "speakerId": 1,
        "time": "9:00 - 10:00",
        "title": "Organization of successful automation",
      }
    }
  />
  <SpeechesListItem
    speech={
      Object {
        "description": "description2",
        "id": 2,
        "score": 0,
        "speaker": Object {
          "id": 43,
          "image": "image2",
          "name": "Speaker name2",
          "title": "Speaker title2",
        },
        "speakerId": 1,
        "time": "11:00 - 12:00",
        "title": "Title2",
      }
    }
  />
</div>
`;

exports[`SpeechesList snapshot error 1`] = `
<DocumentFragment>
  <div>
    <span
      class="text-danger"
    >
      ERROR: errorMessage
    </span>
  </div>
</DocumentFragment>
`;

exports[`SpeechesList snapshot loading 1`] = `
<DocumentFragment>
  <div>
    <em>
      Loading speeches...
    </em>
  </div>
</DocumentFragment>
`;
